^C:\USERS\11530898\DOCUMENTS\3TSY16-BP2-TG101A-FERRARIS-ADRIELLE-BENEDICT\EXERCISES\EXERCISE 3\EXERCISE 3\EX3-3.CPP
C:\USERS\11530898\DOCUMENTS\3TSY16-BP2-TG101A-FERRARIS-ADRIELLE-BENEDICT\EXERCISES\EXERCISE 3\EXERCISE 3\DEBUG\VC140.PDB
C:\USERS\11530898\DOCUMENTS\3TSY16-BP2-TG101A-FERRARIS-ADRIELLE-BENEDICT\EXERCISES\EXERCISE 3\EXERCISE 3\DEBUG\VC140.IDB
C:\USERS\11530898\DOCUMENTS\3TSY16-BP2-TG101A-FERRARIS-ADRIELLE-BENEDICT\EXERCISES\EXERCISE 3\EXERCISE 3\DEBUG\EX3-3.OBJ
