^C:\USERS\11530898\DOCUMENTS\3TSY16-BP2-TG101A-FERRARIS-ADRIELLE-BENEDICT\EXERCISES\EXERCISE 3\EXERCISE 3\DEBUG\EX3-3.OBJ
C:\USERS\11530898\DOCUMENTS\3TSY16-BP2-TG101A-FERRARIS-ADRIELLE-BENEDICT\EXERCISES\EXERCISE 3\DEBUG\EXERCISE 3-3.ILK
C:\USERS\11530898\DOCUMENTS\3TSY16-BP2-TG101A-FERRARIS-ADRIELLE-BENEDICT\EXERCISES\EXERCISE 3\DEBUG\EXERCISE 3-3.EXE
C:\USERS\11530898\DOCUMENTS\3TSY16-BP2-TG101A-FERRARIS-ADRIELLE-BENEDICT\EXERCISES\EXERCISE 3\DEBUG\EXERCISE 3-3.PDB
