^E:\DOCUMENTS\3TSY16-BP2-TG101A-FERRARIS-ADRIELLE-BENEDICT\QUIZZES\SUGGEST A PACKAGE\SUGGEST A PACKAGE\QUIZ1.CPP
E:\DOCUMENTS\3TSY16-BP2-TG101A-FERRARIS-ADRIELLE-BENEDICT\QUIZZES\SUGGEST A PACKAGE\SUGGEST A PACKAGE\DEBUG\VC140.PDB
E:\DOCUMENTS\3TSY16-BP2-TG101A-FERRARIS-ADRIELLE-BENEDICT\QUIZZES\SUGGEST A PACKAGE\SUGGEST A PACKAGE\DEBUG\VC140.IDB
E:\DOCUMENTS\3TSY16-BP2-TG101A-FERRARIS-ADRIELLE-BENEDICT\QUIZZES\SUGGEST A PACKAGE\SUGGEST A PACKAGE\DEBUG\QUIZ1.OBJ
^C:\USERS\11530898\DOCUMENTS\3TSY16-BP2-TG101A-FERRARIS-ADRIELLE-BENEDICT\QUIZZES\SUGGEST A PACKAGE\SUGGEST A PACKAGE\QUIZ1.CPP
C:\USERS\11530898\DOCUMENTS\3TSY16-BP2-TG101A-FERRARIS-ADRIELLE-BENEDICT\QUIZZES\SUGGEST A PACKAGE\SUGGEST A PACKAGE\DEBUG\VC140.PDB
C:\USERS\11530898\DOCUMENTS\3TSY16-BP2-TG101A-FERRARIS-ADRIELLE-BENEDICT\QUIZZES\SUGGEST A PACKAGE\SUGGEST A PACKAGE\DEBUG\VC140.IDB
C:\USERS\11530898\DOCUMENTS\3TSY16-BP2-TG101A-FERRARIS-ADRIELLE-BENEDICT\QUIZZES\SUGGEST A PACKAGE\SUGGEST A PACKAGE\DEBUG\QUIZ1.OBJ
