^C:\USERS\11530898\DOCUMENTS\3TSY16-BP2-TG101A-FERRARIS-ADRIELLE-BENEDICT\EXERCISES\EXERCISE 1\EXERCISE 1\DEBUG\EX1-1.OBJ
C:\USERS\11530898\DOCUMENTS\3TSY16-BP2-TG101A-FERRARIS-ADRIELLE-BENEDICT\EXERCISES\EXERCISE 1\DEBUG\EXERCISE 1.ILK
C:\USERS\11530898\DOCUMENTS\3TSY16-BP2-TG101A-FERRARIS-ADRIELLE-BENEDICT\EXERCISES\EXERCISE 1\DEBUG\EXERCISE 1.EXE
C:\USERS\11530898\DOCUMENTS\3TSY16-BP2-TG101A-FERRARIS-ADRIELLE-BENEDICT\EXERCISES\EXERCISE 1\DEBUG\EXERCISE 1.PDB
