^C:\USERS\11530898\DOCUMENTS\3TSY16-BP2-TG101A-FERRARIS-ADRIELLE-BENEDICT\EXERCISES\EXERCISE 3\EXERCISE 3-5\EX3-5.CPP
/c /ZI /nologo /W3 /WX- /sdl /Od /Oy- /D WIN32 /D _DEBUG /D _CONSOLE /D _UNICODE /D UNICODE /Gm /EHsc /RTC1 /MDd /GS /fp:precise /Zc:wchar_t /Zc:forScope /Zc:inline /Fo"DEBUG\\" /Fd"DEBUG\VC140.PDB" /Gd /TP /analyze- C:\USERS\11530898\DOCUMENTS\3TSY16-BP2-TG101A-FERRARIS-ADRIELLE-BENEDICT\EXERCISES\EXERCISE 3\EXERCISE 3-5\EX3-5.CPP
^E:\DOCUMENTS\3TSY16-BP2-TG101A-FERRARIS-ADRIELLE-BENEDICT\EXERCISES\EXERCISE 3\EXERCISE 3-5\EX3-5.CPP
/c /ZI /nologo /W3 /WX- /sdl /Od /Oy- /D WIN32 /D _DEBUG /D _CONSOLE /D _UNICODE /D UNICODE /Gm /EHsc /RTC1 /MDd /GS /fp:precise /Zc:wchar_t /Zc:forScope /Zc:inline /Fo"DEBUG\\" /Fd"DEBUG\VC140.PDB" /Gd /TP /analyze- E:\DOCUMENTS\3TSY16-BP2-TG101A-FERRARIS-ADRIELLE-BENEDICT\EXERCISES\EXERCISE 3\EXERCISE 3-5\EX3-5.CPP
