^C:\USERS\11530898\DOCUMENTS\3TSY16-BP2-TG101A-FERRARIS-ADRIELLE-BENEDICT\EXAMS\EMPERORCARD\EMPERORCARD\DEBUG\EMPERORCARD.OBJ
C:\USERS\11530898\DOCUMENTS\3TSY16-BP2-TG101A-FERRARIS-ADRIELLE-BENEDICT\EXAMS\EMPERORCARD\DEBUG\EMPERORCARD.ILK
C:\USERS\11530898\DOCUMENTS\3TSY16-BP2-TG101A-FERRARIS-ADRIELLE-BENEDICT\EXAMS\EMPERORCARD\DEBUG\EMPERORCARD.EXE
C:\USERS\11530898\DOCUMENTS\3TSY16-BP2-TG101A-FERRARIS-ADRIELLE-BENEDICT\EXAMS\EMPERORCARD\DEBUG\EMPERORCARD.PDB
