^E:\DOCUMENTS\3TSY16-BP2-TG101A-FERRARIS-ADRIELLE-BENEDICT\EXERCISES\EXERCISE 1-1\EXERCISE 1\EX1-1.CPP
E:\DOCUMENTS\3TSY16-BP2-TG101A-FERRARIS-ADRIELLE-BENEDICT\EXERCISES\EXERCISE 1-1\EXERCISE 1\X64\DEBUG\VC140.PDB
E:\DOCUMENTS\3TSY16-BP2-TG101A-FERRARIS-ADRIELLE-BENEDICT\EXERCISES\EXERCISE 1-1\EXERCISE 1\X64\DEBUG\VC140.IDB
E:\DOCUMENTS\3TSY16-BP2-TG101A-FERRARIS-ADRIELLE-BENEDICT\EXERCISES\EXERCISE 1-1\EXERCISE 1\X64\DEBUG\EX1-1.OBJ
