^C:\USERS\11530898\DOCUMENTS\3TSY16-BP2-TG101A-FERRARIS-ADRIELLE-BENEDICT\EXERCISES\EXERCISE 1-1\EXERCISE 1-2\EX1-2.CPP
C:\WINDOWS\GLOBALIZATION\SORTING\SORTDEFAULT.NLS
C:\PROGRAM FILES (X86)\MICROSOFT VISUAL STUDIO 14.0\VC\BIN\X86_AMD64\1033\CLUI.DLL
C:\WINDOWS\SYSTEM32\RSAENH.DLL
C:\WINDOWS\SYSTEM32\TZRES.DLL
C:\PROGRAM FILES (X86)\MICROSOFT VISUAL STUDIO 14.0\VC\INCLUDE\IOSTREAM
C:\PROGRAM FILES (X86)\MICROSOFT VISUAL STUDIO 14.0\VC\INCLUDE\ISTREAM
C:\PROGRAM FILES (X86)\MICROSOFT VISUAL STUDIO 14.0\VC\INCLUDE\OSTREAM
C:\PROGRAM FILES (X86)\MICROSOFT VISUAL STUDIO 14.0\VC\INCLUDE\IOS
C:\PROGRAM FILES (X86)\MICROSOFT VISUAL STUDIO 14.0\VC\INCLUDE\XLOCNUM
C:\PROGRAM FILES (X86)\MICROSOFT VISUAL STUDIO 14.0\VC\INCLUDE\CLIMITS
C:\PROGRAM FILES (X86)\MICROSOFT VISUAL STUDIO 14.0\VC\INCLUDE\YVALS.H
C:\PROGRAM FILES (X86)\MICROSOFT VISUAL STUDIO 14.0\VC\INCLUDE\XKEYCHECK.H
C:\PROGRAM FILES (X86)\MICROSOFT VISUAL STUDIO 14.0\VC\INCLUDE\CRTDEFS.H
C:\PROGRAM FILES (X86)\MICROSOFT VISUAL STUDIO 14.0\VC\INCLUDE\VCRUNTIME.H
C:\PROGRAM FILES (X86)\MICROSOFT VISUAL STUDIO 14.0\VC\INCLUDE\SAL.H
C:\PROGRAM FILES (X86)\MICROSOFT VISUAL STUDIO 14.0\VC\INCLUDE\CONCURRENCYSAL.H
C:\PROGRAM FILES (X86)\MICROSOFT VISUAL STUDIO 14.0\VC\INCLUDE\VADEFS.H
C:\PROGRAM FILES (X86)\WINDOWS KITS\10\INCLUDE\10.0.10150.0\UCRT\CORECRT.H
C:\PROGRAM FILES (X86)\MICROSOFT VISUAL STUDIO 14.0\VC\INCLUDE\USE_ANSI.H
C:\PROGRAM FILES (X86)\MICROSOFT VISUAL STUDIO 14.0\VC\INCLUDE\LIMITS.H
C:\PROGRAM FILES (X86)\MICROSOFT VISUAL STUDIO 14.0\VC\INCLUDE\CMATH
C:\PROGRAM FILES (X86)\WINDOWS KITS\10\INCLUDE\10.0.10150.0\UCRT\MATH.H
C:\PROGRAM FILES (X86)\MICROSOFT VISUAL STUDIO 14.0\VC\INCLUDE\XTGMATH.H
C:\PROGRAM FILES (X86)\MICROSOFT VISUAL STUDIO 14.0\VC\INCLUDE\XTR1COMMON
C:\PROGRAM FILES (X86)\MICROSOFT VISUAL STUDIO 14.0\VC\INCLUDE\CSTDLIB
C:\PROGRAM FILES (X86)\WINDOWS KITS\10\INCLUDE\10.0.10150.0\UCRT\STDLIB.H
C:\PROGRAM FILES (X86)\WINDOWS KITS\10\INCLUDE\10.0.10150.0\UCRT\CORECRT_MALLOC.H
C:\PROGRAM FILES (X86)\WINDOWS KITS\10\INCLUDE\10.0.10150.0\UCRT\CORECRT_SEARCH.H
C:\PROGRAM FILES (X86)\WINDOWS KITS\10\INCLUDE\10.0.10150.0\UCRT\STDDEF.H
C:\PROGRAM FILES (X86)\WINDOWS KITS\10\INCLUDE\10.0.10150.0\UCRT\CORECRT_WSTDLIB.H
C:\PROGRAM FILES (X86)\MICROSOFT VISUAL STUDIO 14.0\VC\INCLUDE\CSTDIO
C:\PROGRAM FILES (X86)\WINDOWS KITS\10\INCLUDE\10.0.10150.0\UCRT\STDIO.H
C:\PROGRAM FILES (X86)\WINDOWS KITS\10\INCLUDE\10.0.10150.0\UCRT\CORECRT_WSTDIO.H
C:\PROGRAM FILES (X86)\WINDOWS KITS\10\INCLUDE\10.0.10150.0\UCRT\CORECRT_STDIO_CONFIG.H
C:\PROGRAM FILES (X86)\MICROSOFT VISUAL STUDIO 14.0\VC\INCLUDE\STREAMBUF
C:\PROGRAM FILES (X86)\MICROSOFT VISUAL STUDIO 14.0\VC\INCLUDE\XIOSBASE
C:\PROGRAM FILES (X86)\MICROSOFT VISUAL STUDIO 14.0\VC\INCLUDE\XLOCALE
C:\PROGRAM FILES (X86)\MICROSOFT VISUAL STUDIO 14.0\VC\INCLUDE\CSTRING
C:\PROGRAM FILES (X86)\WINDOWS KITS\10\INCLUDE\10.0.10150.0\UCRT\STRING.H
C:\PROGRAM FILES (X86)\WINDOWS KITS\10\INCLUDE\10.0.10150.0\UCRT\CORECRT_MEMORY.H
C:\PROGRAM FILES (X86)\WINDOWS KITS\10\INCLUDE\10.0.10150.0\UCRT\CORECRT_MEMCPY_S.H
C:\PROGRAM FILES (X86)\WINDOWS KITS\10\INCLUDE\10.0.10150.0\UCRT\ERRNO.H
C:\PROGRAM FILES (X86)\MICROSOFT VISUAL STUDIO 14.0\VC\INCLUDE\VCRUNTIME_STRING.H
C:\PROGRAM FILES (X86)\WINDOWS KITS\10\INCLUDE\10.0.10150.0\UCRT\CORECRT_WSTRING.H
C:\PROGRAM FILES (X86)\MICROSOFT VISUAL STUDIO 14.0\VC\INCLUDE\STDEXCEPT
C:\PROGRAM FILES (X86)\MICROSOFT VISUAL STUDIO 14.0\VC\INCLUDE\EXCEPTION
C:\PROGRAM FILES (X86)\MICROSOFT VISUAL STUDIO 14.0\VC\INCLUDE\TYPE_TRAITS
C:\PROGRAM FILES (X86)\MICROSOFT VISUAL STUDIO 14.0\VC\INCLUDE\XSTDDEF
C:\PROGRAM FILES (X86)\MICROSOFT VISUAL STUDIO 14.0\VC\INCLUDE\CSTDDEF
C:\PROGRAM FILES (X86)\MICROSOFT VISUAL STUDIO 14.0\VC\INCLUDE\INITIALIZER_LIST
C:\PROGRAM FILES (X86)\WINDOWS KITS\10\INCLUDE\10.0.10150.0\UCRT\MALLOC.H
C:\PROGRAM FILES (X86)\MICROSOFT VISUAL STUDIO 14.0\VC\INCLUDE\VCRUNTIME_EXCEPTION.H
C:\PROGRAM FILES (X86)\MICROSOFT VISUAL STUDIO 14.0\VC\INCLUDE\EH.H
C:\PROGRAM FILES (X86)\WINDOWS KITS\10\INCLUDE\10.0.10150.0\UCRT\CORECRT_TERMINATE.H
C:\PROGRAM FILES (X86)\MICROSOFT VISUAL STUDIO 14.0\VC\INCLUDE\XSTRING
C:\PROGRAM FILES (X86)\MICROSOFT VISUAL STUDIO 14.0\VC\INCLUDE\XMEMORY0
C:\PROGRAM FILES (X86)\MICROSOFT VISUAL STUDIO 14.0\VC\INCLUDE\CSTDINT
C:\PROGRAM FILES (X86)\MICROSOFT VISUAL STUDIO 14.0\VC\INCLUDE\STDINT.H
C:\PROGRAM FILES (X86)\MICROSOFT VISUAL STUDIO 14.0\VC\INCLUDE\LIMITS
C:\PROGRAM FILES (X86)\MICROSOFT VISUAL STUDIO 14.0\VC\INCLUDE\YMATH.H
C:\PROGRAM FILES (X86)\MICROSOFT VISUAL STUDIO 14.0\VC\INCLUDE\CFLOAT
C:\PROGRAM FILES (X86)\WINDOWS KITS\10\INCLUDE\10.0.10150.0\UCRT\FLOAT.H
C:\PROGRAM FILES (X86)\MICROSOFT VISUAL STUDIO 14.0\VC\INCLUDE\CWCHAR
C:\PROGRAM FILES (X86)\WINDOWS KITS\10\INCLUDE\10.0.10150.0\UCRT\WCHAR.H
C:\PROGRAM FILES (X86)\WINDOWS KITS\10\INCLUDE\10.0.10150.0\UCRT\CORECRT_WCONIO.H
C:\PROGRAM FILES (X86)\WINDOWS KITS\10\INCLUDE\10.0.10150.0\UCRT\CORECRT_WCTYPE.H
C:\PROGRAM FILES (X86)\WINDOWS KITS\10\INCLUDE\10.0.10150.0\UCRT\CORECRT_WDIRECT.H
C:\PROGRAM FILES (X86)\WINDOWS KITS\10\INCLUDE\10.0.10150.0\UCRT\CORECRT_WIO.H
C:\PROGRAM FILES (X86)\WINDOWS KITS\10\INCLUDE\10.0.10150.0\UCRT\CORECRT_SHARE.H
C:\PROGRAM FILES (X86)\WINDOWS KITS\10\INCLUDE\10.0.10150.0\UCRT\CORECRT_WPROCESS.H
C:\PROGRAM FILES (X86)\WINDOWS KITS\10\INCLUDE\10.0.10150.0\UCRT\CORECRT_WTIME.H
C:\PROGRAM FILES (X86)\WINDOWS KITS\10\INCLUDE\10.0.10150.0\UCRT\SYS\STAT.H
C:\PROGRAM FILES (X86)\WINDOWS KITS\10\INCLUDE\10.0.10150.0\UCRT\SYS\TYPES.H
C:\PROGRAM FILES (X86)\MICROSOFT VISUAL STUDIO 14.0\VC\INCLUDE\NEW
C:\PROGRAM FILES (X86)\MICROSOFT VISUAL STUDIO 14.0\VC\INCLUDE\VCRUNTIME_NEW.H
C:\PROGRAM FILES (X86)\MICROSOFT VISUAL STUDIO 14.0\VC\INCLUDE\XUTILITY
C:\PROGRAM FILES (X86)\MICROSOFT VISUAL STUDIO 14.0\VC\INCLUDE\UTILITY
C:\PROGRAM FILES (X86)\MICROSOFT VISUAL STUDIO 14.0\VC\INCLUDE\IOSFWD
C:\PROGRAM FILES (X86)\WINDOWS KITS\10\INCLUDE\10.0.10150.0\UCRT\CRTDBG.H
C:\PROGRAM FILES (X86)\MICROSOFT VISUAL STUDIO 14.0\VC\INCLUDE\VCRUNTIME_NEW_DEBUG.H
C:\PROGRAM FILES (X86)\MICROSOFT VISUAL STUDIO 14.0\VC\INCLUDE\XATOMIC0.H
C:\PROGRAM FILES (X86)\MICROSOFT VISUAL STUDIO 14.0\VC\INCLUDE\INTRIN.H
C:\PROGRAM FILES (X86)\MICROSOFT VISUAL STUDIO 14.0\VC\INCLUDE\SETJMP.H
C:\PROGRAM FILES (X86)\MICROSOFT VISUAL STUDIO 14.0\VC\INCLUDE\IMMINTRIN.H
C:\PROGRAM FILES (X86)\MICROSOFT VISUAL STUDIO 14.0\VC\INCLUDE\WMMINTRIN.H
C:\PROGRAM FILES (X86)\MICROSOFT VISUAL STUDIO 14.0\VC\INCLUDE\NMMINTRIN.H
C:\PROGRAM FILES (X86)\MICROSOFT VISUAL STUDIO 14.0\VC\INCLUDE\SMMINTRIN.H
C:\PROGRAM FILES (X86)\MICROSOFT VISUAL STUDIO 14.0\VC\INCLUDE\TMMINTRIN.H
C:\PROGRAM FILES (X86)\MICROSOFT VISUAL STUDIO 14.0\VC\INCLUDE\PMMINTRIN.H
C:\PROGRAM FILES (X86)\MICROSOFT VISUAL STUDIO 14.0\VC\INCLUDE\EMMINTRIN.H
C:\PROGRAM FILES (X86)\MICROSOFT VISUAL STUDIO 14.0\VC\INCLUDE\XMMINTRIN.H
C:\PROGRAM FILES (X86)\MICROSOFT VISUAL STUDIO 14.0\VC\INCLUDE\MMINTRIN.H
C:\PROGRAM FILES (X86)\MICROSOFT VISUAL STUDIO 14.0\VC\INCLUDE\AMMINTRIN.H
C:\PROGRAM FILES (X86)\MICROSOFT VISUAL STUDIO 14.0\VC\INCLUDE\TYPEINFO
C:\PROGRAM FILES (X86)\MICROSOFT VISUAL STUDIO 14.0\VC\INCLUDE\VCRUNTIME_TYPEINFO.H
C:\PROGRAM FILES (X86)\MICROSOFT VISUAL STUDIO 14.0\VC\INCLUDE\XLOCINFO
C:\PROGRAM FILES (X86)\MICROSOFT VISUAL STUDIO 14.0\VC\INCLUDE\XLOCINFO.H
C:\PROGRAM FILES (X86)\WINDOWS KITS\10\INCLUDE\10.0.10150.0\UCRT\CTYPE.H
C:\PROGRAM FILES (X86)\WINDOWS KITS\10\INCLUDE\10.0.10150.0\UCRT\LOCALE.H
C:\PROGRAM FILES (X86)\MICROSOFT VISUAL STUDIO 14.0\VC\INCLUDE\XFACET
C:\PROGRAM FILES (X86)\MICROSOFT VISUAL STUDIO 14.0\VC\INCLUDE\SYSTEM_ERROR
C:\PROGRAM FILES (X86)\MICROSOFT VISUAL STUDIO 14.0\VC\INCLUDE\CERRNO
C:\PROGRAM FILES (X86)\WINDOWS KITS\10\INCLUDE\10.0.10150.0\UCRT\SHARE.H
C:\PROGRAM FILES (X86)\MICROSOFT VISUAL STUDIO 14.0\VC\INCLUDE\STRING
^E:\DOCUMENTS\3TSY16-BP2-TG101A-FERRARIS-ADRIELLE-BENEDICT\EXERCISES\EXERCISE 1-1\EXERCISE 1-2\EX1-2.CPP
C:\WINDOWS\GLOBALIZATION\SORTING\SORTDEFAULT.NLS
E:\PROGRAM INSTALLATIONS\MICROSOFT VISUAL STUDIO COMMUNITY 2015\VC\BIN\X86_AMD64\1033\CLUI.DLL
C:\WINDOWS\SYSTEM32\TZRES.DLL
E:\PROGRAM INSTALLATIONS\MICROSOFT VISUAL STUDIO COMMUNITY 2015\VC\INCLUDE\IOSTREAM
E:\PROGRAM INSTALLATIONS\MICROSOFT VISUAL STUDIO COMMUNITY 2015\VC\INCLUDE\ISTREAM
E:\PROGRAM INSTALLATIONS\MICROSOFT VISUAL STUDIO COMMUNITY 2015\VC\INCLUDE\OSTREAM
E:\PROGRAM INSTALLATIONS\MICROSOFT VISUAL STUDIO COMMUNITY 2015\VC\INCLUDE\IOS
E:\PROGRAM INSTALLATIONS\MICROSOFT VISUAL STUDIO COMMUNITY 2015\VC\INCLUDE\XLOCNUM
E:\PROGRAM INSTALLATIONS\MICROSOFT VISUAL STUDIO COMMUNITY 2015\VC\INCLUDE\CLIMITS
E:\PROGRAM INSTALLATIONS\MICROSOFT VISUAL STUDIO COMMUNITY 2015\VC\INCLUDE\YVALS.H
E:\PROGRAM INSTALLATIONS\MICROSOFT VISUAL STUDIO COMMUNITY 2015\VC\INCLUDE\XKEYCHECK.H
E:\PROGRAM INSTALLATIONS\MICROSOFT VISUAL STUDIO COMMUNITY 2015\VC\INCLUDE\CRTDEFS.H
E:\PROGRAM INSTALLATIONS\MICROSOFT VISUAL STUDIO COMMUNITY 2015\VC\INCLUDE\VCRUNTIME.H
E:\PROGRAM INSTALLATIONS\MICROSOFT VISUAL STUDIO COMMUNITY 2015\VC\INCLUDE\SAL.H
E:\PROGRAM INSTALLATIONS\MICROSOFT VISUAL STUDIO COMMUNITY 2015\VC\INCLUDE\CONCURRENCYSAL.H
E:\PROGRAM INSTALLATIONS\MICROSOFT VISUAL STUDIO COMMUNITY 2015\VC\INCLUDE\VADEFS.H
C:\PROGRAM FILES (X86)\WINDOWS KITS\10\INCLUDE\10.0.10240.0\UCRT\CORECRT.H
E:\PROGRAM INSTALLATIONS\MICROSOFT VISUAL STUDIO COMMUNITY 2015\VC\INCLUDE\USE_ANSI.H
E:\PROGRAM INSTALLATIONS\MICROSOFT VISUAL STUDIO COMMUNITY 2015\VC\INCLUDE\LIMITS.H
E:\PROGRAM INSTALLATIONS\MICROSOFT VISUAL STUDIO COMMUNITY 2015\VC\INCLUDE\CMATH
C:\PROGRAM FILES (X86)\WINDOWS KITS\10\INCLUDE\10.0.10240.0\UCRT\MATH.H
E:\PROGRAM INSTALLATIONS\MICROSOFT VISUAL STUDIO COMMUNITY 2015\VC\INCLUDE\XTGMATH.H
E:\PROGRAM INSTALLATIONS\MICROSOFT VISUAL STUDIO COMMUNITY 2015\VC\INCLUDE\XTR1COMMON
E:\PROGRAM INSTALLATIONS\MICROSOFT VISUAL STUDIO COMMUNITY 2015\VC\INCLUDE\CSTDLIB
C:\PROGRAM FILES (X86)\WINDOWS KITS\10\INCLUDE\10.0.10240.0\UCRT\STDLIB.H
C:\PROGRAM FILES (X86)\WINDOWS KITS\10\INCLUDE\10.0.10240.0\UCRT\CORECRT_MALLOC.H
C:\PROGRAM FILES (X86)\WINDOWS KITS\10\INCLUDE\10.0.10240.0\UCRT\CORECRT_SEARCH.H
C:\PROGRAM FILES (X86)\WINDOWS KITS\10\INCLUDE\10.0.10240.0\UCRT\STDDEF.H
C:\PROGRAM FILES (X86)\WINDOWS KITS\10\INCLUDE\10.0.10240.0\UCRT\CORECRT_WSTDLIB.H
E:\PROGRAM INSTALLATIONS\MICROSOFT VISUAL STUDIO COMMUNITY 2015\VC\INCLUDE\CSTDIO
C:\PROGRAM FILES (X86)\WINDOWS KITS\10\INCLUDE\10.0.10240.0\UCRT\STDIO.H
C:\PROGRAM FILES (X86)\WINDOWS KITS\10\INCLUDE\10.0.10240.0\UCRT\CORECRT_WSTDIO.H
C:\PROGRAM FILES (X86)\WINDOWS KITS\10\INCLUDE\10.0.10240.0\UCRT\CORECRT_STDIO_CONFIG.H
E:\PROGRAM INSTALLATIONS\MICROSOFT VISUAL STUDIO COMMUNITY 2015\VC\INCLUDE\STREAMBUF
E:\PROGRAM INSTALLATIONS\MICROSOFT VISUAL STUDIO COMMUNITY 2015\VC\INCLUDE\XIOSBASE
E:\PROGRAM INSTALLATIONS\MICROSOFT VISUAL STUDIO COMMUNITY 2015\VC\INCLUDE\XLOCALE
E:\PROGRAM INSTALLATIONS\MICROSOFT VISUAL STUDIO COMMUNITY 2015\VC\INCLUDE\CSTRING
C:\PROGRAM FILES (X86)\WINDOWS KITS\10\INCLUDE\10.0.10240.0\UCRT\STRING.H
C:\PROGRAM FILES (X86)\WINDOWS KITS\10\INCLUDE\10.0.10240.0\UCRT\CORECRT_MEMORY.H
C:\PROGRAM FILES (X86)\WINDOWS KITS\10\INCLUDE\10.0.10240.0\UCRT\CORECRT_MEMCPY_S.H
C:\PROGRAM FILES (X86)\WINDOWS KITS\10\INCLUDE\10.0.10240.0\UCRT\ERRNO.H
E:\PROGRAM INSTALLATIONS\MICROSOFT VISUAL STUDIO COMMUNITY 2015\VC\INCLUDE\VCRUNTIME_STRING.H
C:\PROGRAM FILES (X86)\WINDOWS KITS\10\INCLUDE\10.0.10240.0\UCRT\CORECRT_WSTRING.H
E:\PROGRAM INSTALLATIONS\MICROSOFT VISUAL STUDIO COMMUNITY 2015\VC\INCLUDE\STDEXCEPT
E:\PROGRAM INSTALLATIONS\MICROSOFT VISUAL STUDIO COMMUNITY 2015\VC\INCLUDE\EXCEPTION
E:\PROGRAM INSTALLATIONS\MICROSOFT VISUAL STUDIO COMMUNITY 2015\VC\INCLUDE\TYPE_TRAITS
E:\PROGRAM INSTALLATIONS\MICROSOFT VISUAL STUDIO COMMUNITY 2015\VC\INCLUDE\XSTDDEF
E:\PROGRAM INSTALLATIONS\MICROSOFT VISUAL STUDIO COMMUNITY 2015\VC\INCLUDE\CSTDDEF
E:\PROGRAM INSTALLATIONS\MICROSOFT VISUAL STUDIO COMMUNITY 2015\VC\INCLUDE\INITIALIZER_LIST
C:\PROGRAM FILES (X86)\WINDOWS KITS\10\INCLUDE\10.0.10240.0\UCRT\MALLOC.H
E:\PROGRAM INSTALLATIONS\MICROSOFT VISUAL STUDIO COMMUNITY 2015\VC\INCLUDE\VCRUNTIME_EXCEPTION.H
E:\PROGRAM INSTALLATIONS\MICROSOFT VISUAL STUDIO COMMUNITY 2015\VC\INCLUDE\EH.H
C:\PROGRAM FILES (X86)\WINDOWS KITS\10\INCLUDE\10.0.10240.0\UCRT\CORECRT_TERMINATE.H
E:\PROGRAM INSTALLATIONS\MICROSOFT VISUAL STUDIO COMMUNITY 2015\VC\INCLUDE\XSTRING
E:\PROGRAM INSTALLATIONS\MICROSOFT VISUAL STUDIO COMMUNITY 2015\VC\INCLUDE\XMEMORY0
E:\PROGRAM INSTALLATIONS\MICROSOFT VISUAL STUDIO COMMUNITY 2015\VC\INCLUDE\CSTDINT
E:\PROGRAM INSTALLATIONS\MICROSOFT VISUAL STUDIO COMMUNITY 2015\VC\INCLUDE\STDINT.H
E:\PROGRAM INSTALLATIONS\MICROSOFT VISUAL STUDIO COMMUNITY 2015\VC\INCLUDE\LIMITS
E:\PROGRAM INSTALLATIONS\MICROSOFT VISUAL STUDIO COMMUNITY 2015\VC\INCLUDE\YMATH.H
E:\PROGRAM INSTALLATIONS\MICROSOFT VISUAL STUDIO COMMUNITY 2015\VC\INCLUDE\CFLOAT
C:\PROGRAM FILES (X86)\WINDOWS KITS\10\INCLUDE\10.0.10240.0\UCRT\FLOAT.H
E:\PROGRAM INSTALLATIONS\MICROSOFT VISUAL STUDIO COMMUNITY 2015\VC\INCLUDE\CWCHAR
C:\PROGRAM FILES (X86)\WINDOWS KITS\10\INCLUDE\10.0.10240.0\UCRT\WCHAR.H
C:\PROGRAM FILES (X86)\WINDOWS KITS\10\INCLUDE\10.0.10240.0\UCRT\CORECRT_WCONIO.H
C:\PROGRAM FILES (X86)\WINDOWS KITS\10\INCLUDE\10.0.10240.0\UCRT\CORECRT_WCTYPE.H
C:\PROGRAM FILES (X86)\WINDOWS KITS\10\INCLUDE\10.0.10240.0\UCRT\CORECRT_WDIRECT.H
C:\PROGRAM FILES (X86)\WINDOWS KITS\10\INCLUDE\10.0.10240.0\UCRT\CORECRT_WIO.H
C:\PROGRAM FILES (X86)\WINDOWS KITS\10\INCLUDE\10.0.10240.0\UCRT\CORECRT_SHARE.H
C:\PROGRAM FILES (X86)\WINDOWS KITS\10\INCLUDE\10.0.10240.0\UCRT\CORECRT_WPROCESS.H
C:\PROGRAM FILES (X86)\WINDOWS KITS\10\INCLUDE\10.0.10240.0\UCRT\CORECRT_WTIME.H
C:\PROGRAM FILES (X86)\WINDOWS KITS\10\INCLUDE\10.0.10240.0\UCRT\SYS\STAT.H
C:\PROGRAM FILES (X86)\WINDOWS KITS\10\INCLUDE\10.0.10240.0\UCRT\SYS\TYPES.H
E:\PROGRAM INSTALLATIONS\MICROSOFT VISUAL STUDIO COMMUNITY 2015\VC\INCLUDE\NEW
E:\PROGRAM INSTALLATIONS\MICROSOFT VISUAL STUDIO COMMUNITY 2015\VC\INCLUDE\VCRUNTIME_NEW.H
E:\PROGRAM INSTALLATIONS\MICROSOFT VISUAL STUDIO COMMUNITY 2015\VC\INCLUDE\XUTILITY
E:\PROGRAM INSTALLATIONS\MICROSOFT VISUAL STUDIO COMMUNITY 2015\VC\INCLUDE\UTILITY
E:\PROGRAM INSTALLATIONS\MICROSOFT VISUAL STUDIO COMMUNITY 2015\VC\INCLUDE\IOSFWD
C:\PROGRAM FILES (X86)\WINDOWS KITS\10\INCLUDE\10.0.10240.0\UCRT\CRTDBG.H
E:\PROGRAM INSTALLATIONS\MICROSOFT VISUAL STUDIO COMMUNITY 2015\VC\INCLUDE\VCRUNTIME_NEW_DEBUG.H
E:\PROGRAM INSTALLATIONS\MICROSOFT VISUAL STUDIO COMMUNITY 2015\VC\INCLUDE\XATOMIC0.H
E:\PROGRAM INSTALLATIONS\MICROSOFT VISUAL STUDIO COMMUNITY 2015\VC\INCLUDE\INTRIN.H
E:\PROGRAM INSTALLATIONS\MICROSOFT VISUAL STUDIO COMMUNITY 2015\VC\INCLUDE\SETJMP.H
E:\PROGRAM INSTALLATIONS\MICROSOFT VISUAL STUDIO COMMUNITY 2015\VC\INCLUDE\IMMINTRIN.H
E:\PROGRAM INSTALLATIONS\MICROSOFT VISUAL STUDIO COMMUNITY 2015\VC\INCLUDE\WMMINTRIN.H
E:\PROGRAM INSTALLATIONS\MICROSOFT VISUAL STUDIO COMMUNITY 2015\VC\INCLUDE\NMMINTRIN.H
E:\PROGRAM INSTALLATIONS\MICROSOFT VISUAL STUDIO COMMUNITY 2015\VC\INCLUDE\SMMINTRIN.H
E:\PROGRAM INSTALLATIONS\MICROSOFT VISUAL STUDIO COMMUNITY 2015\VC\INCLUDE\TMMINTRIN.H
E:\PROGRAM INSTALLATIONS\MICROSOFT VISUAL STUDIO COMMUNITY 2015\VC\INCLUDE\PMMINTRIN.H
E:\PROGRAM INSTALLATIONS\MICROSOFT VISUAL STUDIO COMMUNITY 2015\VC\INCLUDE\EMMINTRIN.H
E:\PROGRAM INSTALLATIONS\MICROSOFT VISUAL STUDIO COMMUNITY 2015\VC\INCLUDE\XMMINTRIN.H
E:\PROGRAM INSTALLATIONS\MICROSOFT VISUAL STUDIO COMMUNITY 2015\VC\INCLUDE\MMINTRIN.H
E:\PROGRAM INSTALLATIONS\MICROSOFT VISUAL STUDIO COMMUNITY 2015\VC\INCLUDE\AMMINTRIN.H
E:\PROGRAM INSTALLATIONS\MICROSOFT VISUAL STUDIO COMMUNITY 2015\VC\INCLUDE\TYPEINFO
E:\PROGRAM INSTALLATIONS\MICROSOFT VISUAL STUDIO COMMUNITY 2015\VC\INCLUDE\VCRUNTIME_TYPEINFO.H
E:\PROGRAM INSTALLATIONS\MICROSOFT VISUAL STUDIO COMMUNITY 2015\VC\INCLUDE\XLOCINFO
E:\PROGRAM INSTALLATIONS\MICROSOFT VISUAL STUDIO COMMUNITY 2015\VC\INCLUDE\XLOCINFO.H
C:\PROGRAM FILES (X86)\WINDOWS KITS\10\INCLUDE\10.0.10240.0\UCRT\CTYPE.H
C:\PROGRAM FILES (X86)\WINDOWS KITS\10\INCLUDE\10.0.10240.0\UCRT\LOCALE.H
E:\PROGRAM INSTALLATIONS\MICROSOFT VISUAL STUDIO COMMUNITY 2015\VC\INCLUDE\XFACET
E:\PROGRAM INSTALLATIONS\MICROSOFT VISUAL STUDIO COMMUNITY 2015\VC\INCLUDE\SYSTEM_ERROR
E:\PROGRAM INSTALLATIONS\MICROSOFT VISUAL STUDIO COMMUNITY 2015\VC\INCLUDE\CERRNO
C:\PROGRAM FILES (X86)\WINDOWS KITS\10\INCLUDE\10.0.10240.0\UCRT\SHARE.H
E:\PROGRAM INSTALLATIONS\MICROSOFT VISUAL STUDIO COMMUNITY 2015\VC\INCLUDE\STRING
